C:\Users\hanen\eclipse-workspace\MavenJavaProject\src\main\java\org\eclipse\models\Employee.java
C:\Users\hanen\eclipse-workspace\MavenJavaProject\src\main\java\org\eclipse\models\User.java
C:\Users\hanen\eclipse-workspace\MavenJavaProject\src\main\java\org\eclipse\classes\DateSerializer.java
C:\Users\hanen\eclipse-workspace\MavenJavaProject\src\main\java\org\eclipse\classes\App.java
